<svg width="250" height="250" viewBox="0 0 250 250" fill="none" xmlns="http://www.w3.org/2000/svg">
<path d="M109.375 78.125L130.208 109.375L109.375 140.625H78.125L57.2916 109.375L78.125 78.125H109.375Z" stroke="black" stroke-width="10" stroke-linecap="round" stroke-linejoin="round"/>
<path d="M161.458 109.375L182.292 78.125L161.458 46.875H130.208L109.375 78.125L130.208 109.375M161.458 109.375H130.208M161.458 109.375L182.292 140.625M130.208 109.375L109.375 140.625L130.208 171.875M161.458 171.875L182.292 203.125M161.458 171.875L182.292 140.625M161.458 171.875H130.208M57.2917 46.875L78.125 78.125M130.208 171.875L119.792 187.5M78.125 140.625L67.7083 156.25M57.2917 109.375H46.875M182.292 140.625H213.542" stroke="black" stroke-width="10" stroke-linecap="round" stroke-linejoin="round"/>
<path d="M109.375 208.333C112.251 208.333 114.583 206.001 114.583 203.125C114.583 200.249 112.251 197.917 109.375 197.917C106.498 197.917 104.167 200.249 104.167 203.125C104.167 206.001 106.498 208.333 109.375 208.333Z" fill="black"/>
<path d="M57.2916 177.083C60.1681 177.083 62.5 174.751 62.5 171.875C62.5 168.999 60.1681 166.667 57.2916 166.667C54.4152 166.667 52.0833 168.999 52.0833 171.875C52.0833 174.751 54.4152 177.083 57.2916 177.083Z" fill="black"/>
<path d="M26.0416 114.583C28.9181 114.583 31.25 112.251 31.25 109.375C31.25 106.499 28.9181 104.167 26.0416 104.167C23.1652 104.167 20.8333 106.499 20.8333 109.375C20.8333 112.251 23.1652 114.583 26.0416 114.583Z" fill="black"/>
</svg>
